simulation/qsim/Aula6_ex.msim.vcd
$comment
	File created using the following command:
		vcd file Aula6_ex.msim.vcd -direction
$end
$date
	Sun Feb 20 18:32:21 2022
$end
$version
	ModelSim Version 2020.1
$end
$timescale
	1ps
$end

$scope module Aula6_ex_vlg_vec_tst $end
$var reg 1 ! CLK $end
$var reg 4 " D [3:0] $end
$var reg 1 # RST $end
$var wire 1 $ Q1 [3] $end
$var wire 1 % Q1 [2] $end
$var wire 1 & Q1 [1] $end
$var wire 1 ' Q1 [0] $end
$var wire 1 ( Q2 [3] $end
$var wire 1 ) Q2 [2] $end
$var wire 1 * Q2 [1] $end
$var wire 1 + Q2 [0] $end

$scope module i1 $end
$var wire 1 , gnd $end
$var wire 1 - vcc $end
$var wire 1 . unknown $end
$var tri1 1 / devclrn $end
$var tri1 1 0 devpor $end
$var tri1 1 1 devoe $end
$var wire 1 2 Q1[0]~output_o $end
$var wire 1 3 Q1[1]~output_o $end
$var wire 1 4 Q1[2]~output_o $end
$var wire 1 5 Q1[3]~output_o $end
$var wire 1 6 Q2[0]~output_o $end
$var wire 1 7 Q2[1]~output_o $end
$var wire 1 8 Q2[2]~output_o $end
$var wire 1 9 Q2[3]~output_o $end
$var wire 1 : CLK~input_o $end
$var wire 1 ; CLK~inputclkctrl_outclk $end
$var wire 1 < D[0]~input_o $end
$var wire 1 = primeiro|Q[0]~feeder_combout $end
$var wire 1 > D[1]~input_o $end
$var wire 1 ? D[2]~input_o $end
$var wire 1 @ D[3]~input_o $end
$var wire 1 A primeiro|Q[3]~feeder_combout $end
$var wire 1 B segundo|Q[0]~feeder_combout $end
$var wire 1 C RST~input_o $end
$var wire 1 D RST~inputclkctrl_outclk $end
$var wire 1 E segundo|Q[3]~feeder_combout $end
$var wire 1 F primeiro|Q [3] $end
$var wire 1 G primeiro|Q [2] $end
$var wire 1 H primeiro|Q [1] $end
$var wire 1 I primeiro|Q [0] $end
$var wire 1 J segundo|Q [3] $end
$var wire 1 K segundo|Q [2] $end
$var wire 1 L segundo|Q [1] $end
$var wire 1 M segundo|Q [0] $end
$upscope $end
$upscope $end
$enddefinitions $end
#0
$dumpvars
0!
b0 "
0#
0'
0&
0%
0$
0+
0*
0)
0(
0,
1-
x.
1/
10
11
02
03
04
05
06
07
08
09
0:
0;
0<
0=
0>
0?
0@
0A
0B
0C
0D
0E
0I
0H
0G
0F
0M
0L
0K
0J
$end
#10000
b10 "
1>
#12500
1!
1:
1;
1H
13
1&
#20000
b110 "
b100 "
0>
1?
#25000
0!
0:
0;
#28500
1#
1C
1D
#30000
b110 "
1>
#37500
1!
1:
1;
1K
1L
1G
14
17
18
1)
1*
1%
#40000
b1110 "
b1010 "
b1000 "
0>
0?
1@
1E
1A
#50000
0!
b1010 "
0:
1>
0;
#57000
0#
0C
0D
0L
0K
08
07
0*
0)
#60000
b1110 "
b1100 "
0>
1?
#62500
1!
1:
1;
1F
0H
03
15
1$
0&
#70000
b1110 "
1>
#75000
0!
0:
0;
#80000
b110 "
b10 "
b0 "
0>
0?
0@
0E
0A
#85500
1#
1C
1D
#87500
1!
1:
1;
0F
0G
04
05
0$
0%
#90000
b10 "
1>
#100000
b110 "
0!
b100 "
0>
1?
0:
0;
#110000
b110 "
1>
#112500
1!
1:
1;
1K
1L
1G
1H
13
14
17
18
1)
1*
1%
1&
#114000
0#
0C
0D
0L
0K
08
07
0*
0)
#120000
b1110 "
b1010 "
b1000 "
0>
0?
1@
1E
1A
#125000
0!
0:
0;
#130000
b1010 "
1>
#137500
1!
1:
1;
1F
0G
04
15
1$
0%
#140000
b1110 "
b1100 "
0>
1?
#142500
1#
1C
1D
#150000
0!
b1110 "
0:
1>
0;
#160000
b110 "
b10 "
b0 "
0>
0?
0@
0E
0A
#162500
1!
1:
1;
0F
0H
03
05
0$
0&
#170000
b10 "
1>
#171000
0#
0C
0D
#175000
0!
0:
0;
#180000
b110 "
b100 "
0>
1?
#187500
1!
1:
1;
1G
14
1%
#190000
b110 "
1>
#199500
1#
1C
1D
#200000
b1110 "
b1010 "
0!
b1000 "
0>
0?
1@
0:
0;
1E
1A
#210000
b1010 "
1>
#212500
1!
1:
1;
1J
1L
1F
0G
1H
13
04
15
17
19
1(
1*
1$
0%
1&
#220000
b1110 "
b1100 "
0>
1?
#225000
0!
0:
0;
#228000
0#
0C
0D
0L
0J
09
07
0*
0(
#230000
b1110 "
1>
#237500
1!
1:
1;
1G
14
1%
#240000
b110 "
b10 "
b0 "
0>
0?
0@
0E
0A
#250000
0!
b10 "
0:
1>
0;
#256500
1#
1C
1D
#260000
b110 "
b100 "
0>
1?
#262500
1!
1:
1;
1K
0F
0H
03
05
18
1)
0$
0&
#270000
b110 "
1>
#275000
0!
0:
0;
#280000
b1110 "
b1010 "
b1000 "
0>
0?
1@
1E
1A
#285000
0#
0C
0D
0K
08
0)
#287500
1!
1:
1;
1F
0G
04
15
1$
0%
#290000
b1010 "
1>
#300000
b1110 "
0!
b1100 "
0>
1?
0:
0;
#310000
b1110 "
1>
#312500
1!
1:
1;
1G
1H
13
14
1%
1&
#313500
1#
1C
1D
#320000
b110 "
b10 "
b0 "
0>
0?
0@
0E
0A
#325000
0!
0:
0;
#330000
b10 "
1>
#337500
1!
1:
1;
1L
0F
0G
04
05
17
1*
0$
0%
#340000
b110 "
b100 "
0>
1?
#342000
0#
0C
0D
0L
07
0*
#350000
0!
b110 "
0:
1>
0;
#360000
b1110 "
b1010 "
b1000 "
0>
0?
1@
1E
1A
#362500
1!
1:
1;
1F
0H
03
15
1$
0&
#370000
b1010 "
1>
#370500
1#
1C
1D
#375000
0!
0:
0;
#380000
b1110 "
b1100 "
0>
1?
#387500
1!
1:
1;
1J
1K
1G
14
18
19
1(
1)
1%
#390000
b1110 "
1>
#399000
0#
0C
0D
0K
0J
09
08
0)
0(
#400000
b110 "
b10 "
0!
b0 "
0>
0?
0@
0:
0;
0E
0A
#410000
b10 "
1>
#412500
1!
1:
1;
0F
0G
1H
13
04
05
0$
0%
1&
#420000
b110 "
b100 "
0>
1?
#425000
0!
0:
0;
#427500
1#
1C
1D
#430000
b110 "
1>
#437500
1!
1:
1;
1K
1L
1G
14
17
18
1)
1*
1%
#440000
b1110 "
b1010 "
b1000 "
0>
0?
1@
1E
1A
#450000
0!
b1010 "
0:
1>
0;
#456000
0#
0C
0D
0L
0K
08
07
0*
0)
#460000
b1110 "
b1100 "
0>
1?
#462500
1!
1:
1;
1F
0H
03
15
1$
0&
#470000
b1110 "
1>
#475000
0!
0:
0;
#480000
b110 "
b10 "
b0 "
0>
0?
0@
0E
0A
#484500
1#
1C
1D
#487500
1!
1:
1;
0F
0G
04
05
0$
0%
#490000
b10 "
1>
#500000
b110 "
0!
b100 "
0>
1?
0:
0;
#510000
b110 "
1>
#512500
1!
1:
1;
1K
1L
1G
1H
13
14
17
18
1)
1*
1%
1&
#513000
0#
0C
0D
0L
0K
08
07
0*
0)
#520000
b1110 "
b1010 "
b1000 "
0>
0?
1@
1E
1A
#525000
0!
0:
0;
#530000
b1010 "
1>
#537500
1!
1:
1;
1F
0G
04
15
1$
0%
#540000
b1110 "
b1100 "
0>
1?
#541500
1#
1C
1D
#550000
0!
b1110 "
0:
1>
0;
#560000
b110 "
b10 "
b0 "
0>
0?
0@
0E
0A
#562500
1!
1:
1;
0F
0H
03
05
0$
0&
#570000
0#
b10 "
0C
1>
0D
#575000
0!
0:
0;
#580000
b110 "
b100 "
0>
1?
#587500
1!
1:
1;
1G
14
1%
#590000
b110 "
1>
#598500
1#
1C
1D
#600000
b1110 "
b1010 "
0!
b1000 "
0>
0?
1@
0:
0;
1E
1A
#610000
b1010 "
1>
#612500
1!
1:
1;
1J
1L
1F
0G
1H
13
04
15
17
19
1(
1*
1$
0%
1&
#620000
b1110 "
b1100 "
0>
1?
#625000
0!
0:
0;
#627000
0#
0C
0D
0L
0J
09
07
0*
0(
#630000
b1110 "
1>
#637500
1!
1:
1;
1G
14
1%
#640000
b110 "
b10 "
b0 "
0>
0?
0@
0E
0A
#650000
0!
b10 "
0:
1>
0;
#655500
1#
1C
1D
#660000
b110 "
b100 "
0>
1?
#662500
1!
1:
1;
1K
0F
0H
03
05
18
1)
0$
0&
#670000
b110 "
1>
#675000
0!
0:
0;
#680000
b1110 "
b1010 "
b1000 "
0>
0?
1@
1E
1A
#684000
0#
0C
0D
0K
08
0)
#687500
1!
1:
1;
1F
0G
04
15
1$
0%
#690000
b1010 "
1>
#700000
b1110 "
0!
b1100 "
0>
1?
0:
0;
#710000
b1110 "
1>
#712500
1#
1!
1C
1:
1D
1;
1J
1K
1L
1G
1H
13
14
17
18
19
1(
1)
1*
1%
1&
#720000
b110 "
b10 "
b0 "
0>
0?
0@
0E
0A
#725000
0!
0:
0;
#730000
b10 "
1>
#737500
1!
1:
1;
0J
0K
0F
0G
04
05
08
09
0(
0)
0$
0%
#740000
b110 "
b100 "
0>
1?
#741000
0#
0C
0D
0L
07
0*
#750000
0!
b110 "
0:
1>
0;
#760000
b1110 "
b1010 "
b1000 "
0>
0?
1@
1E
1A
#762500
1!
1:
1;
1F
0H
03
15
1$
0&
#769500
1#
1C
1D
#770000
b1010 "
1>
#775000
0!
0:
0;
#780000
b1110 "
b1100 "
0>
1?
#787500
1!
1:
1;
1J
1K
1G
14
18
19
1(
1)
1%
#790000
b1110 "
1>
#798000
0#
0C
0D
0K
0J
09
08
0)
0(
#800000
b110 "
b10 "
0!
b0 "
0>
0?
0@
0:
0;
0E
0A
#810000
b10 "
1>
#812500
1!
1:
1;
0F
0G
1H
13
04
05
0$
0%
1&
#820000
b110 "
b100 "
0>
1?
#825000
0!
0:
0;
#826500
1#
1C
1D
#830000
b110 "
1>
#837500
1!
1:
1;
1K
1L
1G
14
17
18
1)
1*
1%
#840000
b1110 "
b1010 "
b1000 "
0>
0?
1@
1E
1A
#850000
0!
b1010 "
0:
1>
0;
#855000
0#
0C
0D
0L
0K
08
07
0*
0)
#860000
b1110 "
b1100 "
0>
1?
#862500
1!
1:
1;
1F
0H
03
15
1$
0&
#870000
b1110 "
1>
#875000
0!
0:
0;
#880000
b110 "
b10 "
b0 "
0>
0?
0@
0E
0A
#883500
1#
1C
1D
#887500
1!
1:
1;
0F
0G
04
05
0$
0%
#890000
b10 "
1>
#900000
b110 "
0!
b100 "
0>
1?
0:
0;
#910000
b110 "
1>
#912000
0#
0C
0D
#912500
1!
1:
1;
1G
1H
13
14
1%
1&
#920000
b1110 "
b1010 "
b1000 "
0>
0?
1@
1E
1A
#925000
0!
0:
0;
#930000
b1010 "
1>
#937500
1!
1:
1;
1F
0G
04
15
1$
0%
#940000
b1110 "
b1100 "
0>
1?
#940500
1#
1C
1D
#950000
0!
b1110 "
0:
1>
0;
#960000
b110 "
b10 "
b0 "
0>
0?
0@
0E
0A
#962500
1!
1:
1;
0F
0H
03
05
0$
0&
#969000
0#
0C
0D
#970000
b10 "
1>
#975000
0!
0:
0;
#980000
b110 "
b100 "
0>
1?
#987500
1!
1:
1;
1G
14
1%
#990000
b110 "
1>
#997500
1#
1C
1D
